slendr simulations
…
Extracting sample information

If we have a tree sequence ts, we can get samples with ts_samples():

ts_samples(ts)

# A tibble: 4,700 × 3
   name     time pop  
   <chr>   <dbl> <chr>
 1 pop1_1      0 pop1 
 2 pop1_2      0 pop1 
 3 pop1_3      0 pop1 
 4 pop1_4      0 pop1 
 5 pop1_5      0 pop1 
 6 pop1_6      0 pop1 
 7 pop1_7      0 pop1 
 8 pop1_8      0 pop1 
 9 pop1_9      0 pop1 
10 pop1_10     0 pop1 
# … with 4,690 more rows
…
Compute nucleotide diversity (\(\pi\)) in each population (ts_diversity()). Do your results with known \(N_e\) values?

Compute ts_divergence() (genetic divergence) or ts_fst() (\(F_{ST}\)) between populations. Do the results match the model?

Compute the “outgroup \(f_3\)” using CHIMP as the outgroup (ts_f3()) for different pairs of “A” and “B” populations.

Test Neanderthal introgression in EUR using the \(f_4\) statistic (ts_f4()). [hint: \(f_4\)(AFR, EUR; NEAND, CHIMP)]

Exercise #4 — popgen statistics

A useful R trick for handling recorded samples:

ts_samples(ts)

# A tibble: 24,000 × 3
   name    time pop  
   <chr>  <dbl> <chr>
 1 AFR_1      0 AFR  
 2 AFR_2      0 AFR  
 3 AFR_3      0 AFR  
 4 AFR_4      0 AFR  
 5 AFR_5      0 AFR  
 6 AFR_6      0 AFR  
 7 AFR_7      0 AFR  
 8 AFR_8      0 AFR  
 9 AFR_9      0 AFR  
10 AFR_10     0 AFR  
# … with 23,990 more rows
…
BONUS CONTENT

Conversion to other genotype formats

If you have a tree-sequence object ts…

ts_vcf(ts, path = "path/to/a/file.vcf.gz")

ts_eigenstrat(ts, prefix = "path/to/eigenstrat/prefix")

ts_genotypes(ts)

1 multiallelic sites (0.072% out of 1390 total) detected and removed

# A tibble: 1,389 × 7
     pos EUR_1_chr1 EUR_1_chr2 EUR_2_chr1 EUR_2_chr2 AFR_1_chr1 AFR_1_chr2
   <int>      <int>      <int>      <int>      <int>      <int>      <int>
 1  1001          0          1          0          0          1          0
 2  1389          0          1          0          0          1          0
 3  2425          0          1          0          0          1          0
 4  4345          1          0          1          1          0          1
 5  5130          0          0          0          0          1          0
 6  7057          1          0          1          1          1          1
 7  7962          1          1          1          1          1          1
 8  9380          1          1          1          1          1          1
 9  9752          0          0          0          0          0          1
10 11235          1          0          1          1          1          1
# … with 1,379 more rows
